/Users/anujmundra/Downloads/carrental/src/main/java/com/example/carrental/Repository/UserRepository.java
/Users/anujmundra/Downloads/carrental/src/main/java/com/example/carrental/Service/UserService.java
/Users/anujmundra/Downloads/carrental/src/main/java/com/example/carrental/Repository/CarRepository.java
/Users/anujmundra/Downloads/carrental/src/main/java/com/example/carrental/Controller/UserController.java
/Users/anujmundra/Downloads/carrental/src/main/java/com/example/carrental/Model/CarDetail.java
/Users/anujmundra/Downloads/carrental/src/main/java/com/example/carrental/CarrentalApplication.java
/Users/anujmundra/Downloads/carrental/src/main/java/com/example/carrental/Service/CarService.java
/Users/anujmundra/Downloads/carrental/src/main/java/com/example/carrental/Controller/CarController.java
/Users/anujmundra/Downloads/carrental/src/main/java/com/example/carrental/Model/UserDetails.java
